%!PS-Adobe-3.0 EPSF-3.0
%%Creator: cairo 1.17.6 (https://cairographics.org)
%%CreationDate: Sun Oct 30 21:40:22 2022
%%Pages: 1
%%DocumentData: Clean7Bit
%%LanguageLevel: 2
%%BoundingBox: 0 0 127 184
%%EndComments
%%BeginProlog
50 dict begin
/q { gsave } bind def
/Q { grestore } bind def
/cm { 6 array astore concat } bind def
/w { setlinewidth } bind def
/J { setlinecap } bind def
/j { setlinejoin } bind def
/M { setmiterlimit } bind def
/d { setdash } bind def
/m { moveto } bind def
/l { lineto } bind def
/c { curveto } bind def
/h { closepath } bind def
/re { exch dup neg 3 1 roll 5 3 roll moveto 0 rlineto
      0 exch rlineto 0 rlineto closepath } bind def
/S { stroke } bind def
/f { fill } bind def
/f* { eofill } bind def
/n { newpath } bind def
/W { clip } bind def
/W* { eoclip } bind def
/BT { } bind def
/ET { } bind def
/BDC { mark 3 1 roll /BDC pdfmark } bind def
/EMC { mark /EMC pdfmark } bind def
/cairo_store_point { /cairo_point_y exch def /cairo_point_x exch def } def
/Tj { show currentpoint cairo_store_point } bind def
/TJ {
  {
    dup
    type /stringtype eq
    { show } { -0.001 mul 0 cairo_font_matrix dtransform rmoveto } ifelse
  } forall
  currentpoint cairo_store_point
} bind def
/cairo_selectfont { cairo_font_matrix aload pop pop pop 0 0 6 array astore
    cairo_font exch selectfont cairo_point_x cairo_point_y moveto } bind def
/Tf { pop /cairo_font exch def /cairo_font_matrix where
      { pop cairo_selectfont } if } bind def
/Td { matrix translate cairo_font_matrix matrix concatmatrix dup
      /cairo_font_matrix exch def dup 4 get exch 5 get cairo_store_point
      /cairo_font where { pop cairo_selectfont } if } bind def
/Tm { 2 copy 8 2 roll 6 array astore /cairo_font_matrix exch def
      cairo_store_point /cairo_font where { pop cairo_selectfont } if } bind def
/g { setgray } bind def
/rg { setrgbcolor } bind def
/d1 { setcachedevice } bind def
/cairo_data_source {
  CairoDataIndex CairoData length lt
    { CairoData CairoDataIndex get /CairoDataIndex CairoDataIndex 1 add def }
    { () } ifelse
} def
/cairo_flush_ascii85_file { cairo_ascii85_file status { cairo_ascii85_file flushfile } if } def
/cairo_image { image cairo_flush_ascii85_file } def
/cairo_imagemask { imagemask cairo_flush_ascii85_file } def
%%EndProlog
%%BeginSetup
%%EndSetup
%%Page: 1 1
%%BeginPageSetup
%%PageBoundingBox: 0 0 127 184
%%EndPageSetup
q 0 0 127 184 rectclip
1 0 0 -1 0 184 cm q
1 g
0.938 177.324 m 0.938 180.156 3.254 182.477 6.086 182.477 c 120.68 182.477
 l 123.504 182.477 125.82 180.156 125.82 177.324 c 125.82 6.086 l 125.82
 3.254 123.504 0.938 120.68 0.938 c 6.086 0.938 l 3.254 0.938 0.938 3.254
 0.938 6.086 c h
0.938 177.324 m f
0 g
1.874303 w
0 J
0 j
[] 0.0 d
4 M q 1 0 0 1 0 0 cm
0.938 177.324 m 0.938 180.156 3.254 182.477 6.086 182.477 c 120.68 182.477
 l 123.504 182.477 125.82 180.156 125.82 177.324 c 125.82 6.086 l 125.82
 3.254 123.504 0.938 120.68 0.938 c 6.086 0.938 l 3.254 0.938 0.938 3.254
 0.938 6.086 c h
0.938 177.324 m S Q
12.484 4.996 m 12.484 5.465 l 11.41 5.977 10.551 6.637 9.906 7.449 c 9.258
 8.254 8.742 9.227 8.359 10.371 c 7.984 11.52 7.695 12.941 7.5 14.637 c 
7.758 14.305 7.973 14.09 8.141 13.996 c 8.523 13.77 8.914 13.652 9.313 13.652
 c 10.207 13.652 10.957 14.27 11.563 15.496 c 12.164 16.727 12.469 18.398
 12.469 20.512 c 12.469 22.004 12.301 23.371 11.969 24.621 c 11.645 25.863
 11.18 26.82 10.578 27.496 c 9.984 28.172 9.348 28.512 8.672 28.512 c 7.93
 28.512 7.242 28.129 6.609 27.371 c 5.984 26.613 5.492 25.504 5.141 24.043
 c 4.785 22.574 4.609 20.977 4.609 19.246 c 4.609 16.727 4.93 14.379 5.578
 12.199 c 6.234 10.012 7.156 8.273 8.344 6.98 c 9.539 5.691 10.922 5.027
 12.484 4.996 c h
7.375 15.996 m 7.332 17.527 7.313 18.648 7.313 19.355 c 7.313 20.887 7.391
 22.371 7.547 23.809 c 7.703 25.238 7.914 26.238 8.188 26.809 c 8.383 27.227
 8.613 27.434 8.875 27.434 c 9.145 27.434 9.383 27.137 9.594 26.543 c 9.813
 25.949 9.922 24.742 9.922 22.918 c 9.922 19.855 9.723 17.742 9.328 16.574
 c 9.078 15.816 8.734 15.434 8.297 15.434 c 8.066 15.434 7.758 15.621 7.375
 15.996 c h
7.375 15.996 m f
115.027 177.668 m 115.027 177.199 l 116.102 176.688 116.961 176.027 117.605
 175.215 c 118.254 174.41 118.77 173.438 119.152 172.293 c 119.527 171.145
 119.816 169.723 120.012 168.027 c 119.754 168.359 119.539 168.574 119.371
 168.668 c 118.988 168.895 118.598 169.012 118.199 169.012 c 117.305 169.012
 116.555 168.395 115.949 167.168 c 115.348 165.938 115.043 164.266 115.043
 162.152 c 115.043 160.66 115.211 159.293 115.543 158.043 c 115.867 156.801
 116.332 155.844 116.934 155.168 c 117.527 154.492 118.164 154.152 118.84
 154.152 c 119.582 154.152 120.27 154.535 120.902 155.293 c 121.527 156.051
 122.02 157.16 122.371 158.621 c 122.727 160.09 122.902 161.688 122.902 
163.418 c 122.902 165.938 122.582 168.285 121.934 170.465 c 121.277 172.652
 120.355 174.391 119.168 175.684 c 117.973 176.973 116.59 177.637 115.027
 177.668 c h
120.137 166.668 m 120.18 165.137 120.199 164.016 120.199 163.309 c 120.199
 161.777 120.121 160.293 119.965 158.855 c 119.809 157.426 119.598 156.426
 119.324 155.855 c 119.129 155.438 118.898 155.23 118.637 155.23 c 118.367
 155.23 118.129 155.527 117.918 156.121 c 117.699 156.715 117.59 157.922
 117.59 159.746 c 117.59 162.809 117.789 164.922 118.184 166.09 c 118.434
 166.848 118.777 167.23 119.215 167.23 c 119.445 167.23 119.754 167.043 
120.137 166.668 c h
120.137 166.668 m f
8.23 44.484 m 9.484 44.484 10.145 43.148 10.488 41.813 c 10.832 40.48 10.863
 39.145 10.863 39.145 c 11.5 39.137 l 11.5 39.137 11.621 44.484 14.125 44.484
 c h
8.23 44.484 m f
6.109 39.137 m 6.117 36.535 10.023 34.648 11.172 32.594 c 12.316 34.656
 16.223 36.543 16.23 39.137 c 16.23 40.367 15.098 41.363 13.699 41.363 c
 12.305 41.363 11.172 40.367 11.172 39.137 c 11.172 40.367 10.039 41.363
 8.637 41.363 c 7.234 41.363 6.109 40.367 6.109 39.137 c h
6.109 39.137 m f
119.277 138.18 m 118.023 138.18 117.363 139.516 117.02 140.852 c 116.676
 142.184 116.645 143.52 116.645 143.52 c 116.008 143.527 l 116.008 143.527
 115.887 138.18 113.383 138.18 c h
119.277 138.18 m f
121.398 143.527 m 121.391 146.129 117.484 148.016 116.34 150.07 c 115.191
 148.012 111.285 146.121 111.277 143.527 c 111.277 142.297 112.41 141.301
 113.813 141.301 c 115.207 141.301 116.34 142.297 116.34 143.527 c 116.34
 142.297 117.469 141.301 118.871 141.301 c 120.273 141.301 121.398 142.297
 121.398 143.527 c h
121.398 143.527 m f
26.766 42.766 m 29.77 42.766 31.355 39.563 32.18 36.359 c 33.008 33.156
 33.082 29.953 33.082 29.953 c 34.609 29.938 l 34.609 29.938 34.898 42.766
 40.91 42.766 c h
26.766 42.766 m f
21.672 29.938 m 21.691 23.691 31.066 19.156 33.82 14.227 c 36.57 19.176
 45.945 23.711 45.965 29.938 c 45.965 32.887 43.246 35.281 39.883 35.281
 c 36.535 35.281 33.82 32.887 33.82 29.938 c 33.82 32.887 31.102 35.281 
27.738 35.281 c 24.371 35.281 21.672 32.887 21.672 29.938 c h
21.672 29.938 m f
26.766 100.449 m 29.77 100.449 31.355 97.246 32.18 94.043 c 33.008 90.84
 33.082 87.641 33.082 87.641 c 34.609 87.621 l 34.609 87.621 34.898 100.449
 40.91 100.449 c h
26.766 100.449 m f
21.672 87.621 m 21.691 81.379 31.066 76.844 33.82 71.914 c 36.57 76.859
 45.945 81.395 45.965 87.621 c 45.965 90.57 43.246 92.965 39.883 92.965 
c 36.535 92.965 33.82 90.57 33.82 87.621 c 33.82 90.57 31.102 92.965 27.738
 92.965 c 24.371 92.965 21.672 90.57 21.672 87.621 c h
21.672 87.621 m f
40.871 136.789 m 37.867 136.789 36.285 139.992 35.457 143.191 c 34.629 
146.395 34.555 149.598 34.555 149.598 c 33.027 149.617 l 33.027 149.617 
32.738 136.789 26.73 136.789 c h
40.871 136.789 m f
45.965 149.617 m 45.945 155.859 36.57 160.395 33.82 165.324 c 31.066 160.375
 21.691 155.844 21.672 149.617 c 21.672 146.664 24.391 144.273 27.754 144.273
 c 31.102 144.273 33.82 146.664 33.82 149.617 c 33.82 146.664 36.535 144.273
 39.902 144.273 c 43.266 144.273 45.965 146.664 45.965 149.617 c h
45.965 149.617 m f
86.637 42.766 m 89.641 42.766 91.227 39.563 92.051 36.359 c 92.879 33.156
 92.953 29.953 92.953 29.953 c 94.48 29.938 l 94.48 29.938 94.77 42.766 
100.777 42.766 c h
86.637 42.766 m f
81.543 29.938 m 81.563 23.691 90.938 19.156 93.691 14.227 c 96.441 19.176
 105.816 23.711 105.836 29.938 c 105.836 32.887 103.117 35.281 99.754 35.281
 c 96.406 35.281 93.691 32.887 93.691 29.938 c 93.691 32.887 90.973 35.281
 87.609 35.281 c 84.242 35.281 81.543 32.887 81.543 29.938 c h
81.543 29.938 m f
86.637 100.449 m 89.641 100.449 91.227 97.246 92.051 94.043 c 92.879 90.84
 92.953 87.641 92.953 87.641 c 94.48 87.621 l 94.48 87.621 94.77 100.449
 100.777 100.449 c h
86.637 100.449 m f
81.543 87.621 m 81.563 81.379 90.938 76.844 93.691 71.914 c 96.441 76.859
 105.816 81.395 105.836 87.621 c 105.836 90.57 103.117 92.965 99.754 92.965
 c 96.406 92.965 93.691 90.57 93.691 87.621 c 93.691 90.57 90.973 92.965
 87.609 92.965 c 84.242 92.965 81.543 90.57 81.543 87.621 c h
81.543 87.621 m f
100.742 136.789 m 97.738 136.789 96.156 139.992 95.328 143.191 c 94.5 146.395
 94.426 149.598 94.426 149.598 c 92.898 149.617 l 92.898 149.617 92.609 
136.789 86.602 136.789 c h
100.742 136.789 m f
105.836 149.617 m 105.816 155.859 96.441 160.395 93.691 165.324 c 90.938
 160.375 81.563 155.844 81.543 149.617 c 81.543 146.664 84.262 144.273 87.625
 144.273 c 90.973 144.273 93.691 146.664 93.691 149.617 c 93.691 146.664
 96.406 144.273 99.773 144.273 c 103.137 144.273 105.836 146.664 105.836
 149.617 c h
105.836 149.617 m f
Q Q
showpage
%%Trailer
end
%%EOF
